34
0,null_0,0,
1,grassydirt_1,1,
2,water_1,0,
3,shoreline_1,1,
4,shoreline_2,1,
5,shoreline_3,1,
6,shoreline_4,1,
7,shoreline_5,1,
8,shoreline_6,1,
9,shoreline_7,1,
10,shoreline_8,1,
11,shoreline_9,1,
12,shoreline_10,1,
13,shoreline_11,1,
14,shoreline_12,1,
15,island_down,1,
16,island_botLC,1,
17,island_left,1,
18,island_topLC,1,
19,island_up,1,
20,island_topRC,1,
21,island_right,1,
22,island_botRC,1,
23,island_center,1,
24,grass_1,1,
25,woodFloor_1,1,
26,fountain_1,0,
27,caveFloor_1,1,
28,caveFloor_bloody_1,1,
29,snow_1,1,
30,ice_1,1,
31,lava_1,1,
32,wheat_1,1,
33,caveFloor_exit_1,1,
