{ "frames": {
   "right - all data 0.aseprite": {
    "frame": { "x": 0, "y": 0, "w": 128, "h": 64 },
    "rotated": false,
    "trimmed": false,
    "spriteSourceSize": { "x": 0, "y": 0, "w": 128, "h": 64 },
    "sourceSize": { "w": 128, "h": 64 },
    "duration": 100
   },
   "right - all data 1.aseprite": {
    "frame": { "x": 128, "y": 0, "w": 128, "h": 64 },
    "rotated": false,
    "trimmed": false,
    "spriteSourceSize": { "x": 0, "y": 0, "w": 128, "h": 64 },
    "sourceSize": { "w": 128, "h": 64 },
    "duration": 100
   },
   "right - all data 2.aseprite": {
    "frame": { "x": 256, "y": 0, "w": 128, "h": 64 },
    "rotated": false,
    "trimmed": false,
    "spriteSourceSize": { "x": 0, "y": 0, "w": 128, "h": 64 },
    "sourceSize": { "w": 128, "h": 64 },
    "duration": 100
   },
   "right - all data 3.aseprite": {
    "frame": { "x": 384, "y": 0, "w": 128, "h": 64 },
    "rotated": false,
    "trimmed": false,
    "spriteSourceSize": { "x": 0, "y": 0, "w": 128, "h": 64 },
    "sourceSize": { "w": 128, "h": 64 },
    "duration": 100
   },
   "right - all data 4.aseprite": {
    "frame": { "x": 512, "y": 0, "w": 128, "h": 64 },
    "rotated": false,
    "trimmed": false,
    "spriteSourceSize": { "x": 0, "y": 0, "w": 128, "h": 64 },
    "sourceSize": { "w": 128, "h": 64 },
    "duration": 100
   },
   "right - all data 5.aseprite": {
    "frame": { "x": 640, "y": 0, "w": 128, "h": 64 },
    "rotated": false,
    "trimmed": false,
    "spriteSourceSize": { "x": 0, "y": 0, "w": 128, "h": 64 },
    "sourceSize": { "w": 128, "h": 64 },
    "duration": 100
   }
 },
 "meta": {
  "app": "http://www.aseprite.org/",
  "version": "1.3-dev",
  "format": "RGBA8888",
  "size": { "w": 768, "h": 64 },
  "scale": "1",
  "frameTags": [
  ],
  "layers": [
   { "name": "Frame 1", "opacity": 255, "blendMode": "normal" },
   { "name": "Frame 2", "opacity": 255, "blendMode": "normal" },
   { "name": "Frame 3", "opacity": 255, "blendMode": "normal" },
   { "name": "Frame 4", "opacity": 255, "blendMode": "normal" },
   { "name": "Frame 5", "opacity": 255, "blendMode": "normal" },
   { "name": "Frame 6", "opacity": 255, "blendMode": "normal" }
  ],
  "slices": [
  ]
 }
}
