{
  "spritesheets": [
    {
      "filename": "empty.png",
      "rows": 1,
      "cols": 1,
      "assets": [
        {
          "key": "empty-tile",
          "x_index": 0,
          "y_index": 0,
          "width": 1,
          "height": 1
        }
      ]
    },
    {
      "filename": "water.png",
      "rows": 6,
      "cols": 3,
      "assets": [
        {
          "key": "water-patch-large",
          "x_index": 0,
          "y_index": 0,
          "width": 1,
          "height": 1
        },
        {
          "key": "water-corner-convex-nw",
          "x_index": 1,
          "y_index": 0,
          "width": 1,
          "height": 1
        },
        {
          "key": "water-corner-convex-ne",
          "x_index": 2,
          "y_index": 0,
          "width": 1,
          "height": 1
        },
        {
          "key": "water-corner-convex-sw",
          "x_index": 1,
          "y_index": 1,
          "width": 1,
          "height": 1
        },
        {
          "key": "water-corner-convex-se",
          "x_index": 2,
          "y_index": 1,
          "width": 1,
          "height": 1
        },
        {
          "key": "water-patch-small",
          "x_index": 0,
          "y_index": 1,
          "width": 1,
          "height": 1
        },
        {
          "key": "water-corner-nw",
          "x_index": 0,
          "y_index": 2,
          "width": 1,
          "height": 1
        },
        {
          "key": "water-edge-n",
          "x_index": 1,
          "y_index": 2,
          "width": 1,
          "height": 1
        },
        {
          "key": "water-corner-ne",
          "x_index": 2,
          "y_index": 2,
          "width": 1,
          "height": 1
        },
        {
          "key": "water-edge-w",
          "x_index": 0,
          "y_index": 3,
          "width": 1,
          "height": 1
        },
        {
          "key": "water-empty",
          "x_index": 1,
          "y_index": 3,
          "width": 1,
          "height": 1
        },
        {
          "key": "water-edge-e",
          "x_index": 2,
          "y_index": 3,
          "width": 1,
          "height": 1
        },
        {
          "key": "water-corner-sw",
          "x_index": 0,
          "y_index": 4,
          "width": 1,
          "height": 1
        },
        {
          "key": "water-edge-s",
          "x_index": 1,
          "y_index": 4,
          "width": 1,
          "height": 1
        },
        {
          "key": "water-corner-se",
          "x_index": 2,
          "y_index": 4,
          "width": 1,
          "height": 1
        },
        {
          "key": "water-3",
          "x_index": 0,
          "y_index": 5,
          "width": 1,
          "height": 1
        },
        {
          "key": "water-2",
          "x_index": 1,
          "y_index": 5,
          "width": 1,
          "height": 1
        },
        {
          "key": "water-1",
          "x_index": 2,
          "y_index": 5,
          "width": 1,
          "height": 1
        }
      ]
    },
    {
      "filename": "lavarock.png",
      "rows": 6,
      "cols": 3,
      "assets": [
        {
          "key": "lavarock-patch-large",
          "x_index": 0,
          "y_index": 0,
          "width": 1,
          "height": 1
        },
        {
          "key": "lavarock-corner-convex-nw",
          "x_index": 1,
          "y_index": 0,
          "width": 1,
          "height": 1
        },
        {
          "key": "lavarock-corner-convex-ne",
          "x_index": 2,
          "y_index": 0,
          "width": 1,
          "height": 1
        },
        {
          "key": "lavarock-corner-convex-sw",
          "x_index": 1,
          "y_index": 1,
          "width": 1,
          "height": 1
        },
        {
          "key": "lavarock-corner-convex-se",
          "x_index": 2,
          "y_index": 1,
          "width": 1,
          "height": 1
        },
        {
          "key": "lavarock-patch-small",
          "x_index": 0,
          "y_index": 1,
          "width": 1,
          "height": 1
        },
        {
          "key": "lavarock-corner-nw",
          "x_index": 0,
          "y_index": 2,
          "width": 1,
          "height": 1
        },
        {
          "key": "lavarock-edge-n",
          "x_index": 1,
          "y_index": 2,
          "width": 1,
          "height": 1
        },
        {
          "key": "lavarock-corner-ne",
          "x_index": 2,
          "y_index": 2,
          "width": 1,
          "height": 1
        },
        {
          "key": "lavarock-edge-w",
          "x_index": 0,
          "y_index": 3,
          "width": 1,
          "height": 1
        },
        {
          "key": "lavarock-empty",
          "x_index": 1,
          "y_index": 3,
          "width": 1,
          "height": 1
        },
        {
          "key": "lavarock-edge-e",
          "x_index": 2,
          "y_index": 3,
          "width": 1,
          "height": 1
        },
        {
          "key": "lavarock-corner-sw",
          "x_index": 0,
          "y_index": 4,
          "width": 1,
          "height": 1
        },
        {
          "key": "lavarock-edge-s",
          "x_index": 1,
          "y_index": 4,
          "width": 1,
          "height": 1
        },
        {
          "key": "lavarock-corner-se",
          "x_index": 2,
          "y_index": 4,
          "width": 1,
          "height": 1
        },
        {
          "key": "lavarock-3",
          "x_index": 0,
          "y_index": 5,
          "width": 1,
          "height": 1
        },
        {
          "key": "lavarock-2",
          "x_index": 1,
          "y_index": 5,
          "width": 1,
          "height": 1
        },
        {
          "key": "lavarock-1",
          "x_index": 2,
          "y_index": 5,
          "width": 1,
          "height": 1
        }
      ]
    },
    {
      "filename": "lava.png",
      "rows": 6,
      "cols": 3,
      "assets": [
        {
          "key": "lava-patch-large",
          "x_index": 0,
          "y_index": 0,
          "width": 1,
          "height": 1
        },
        {
          "key": "lava-corner-convex-nw",
          "x_index": 1,
          "y_index": 0,
          "width": 1,
          "height": 1
        },
        {
          "key": "lava-corner-convex-ne",
          "x_index": 2,
          "y_index": 0,
          "width": 1,
          "height": 1
        },
        {
          "key": "lava-corner-convex-sw",
          "x_index": 1,
          "y_index": 1,
          "width": 1,
          "height": 1
        },
        {
          "key": "lava-corner-convex-se",
          "x_index": 2,
          "y_index": 1,
          "width": 1,
          "height": 1
        },
        {
          "key": "lava-patch-small",
          "x_index": 0,
          "y_index": 1,
          "width": 1,
          "height": 1
        },
        {
          "key": "lava-corner-nw",
          "x_index": 0,
          "y_index": 2,
          "width": 1,
          "height": 1
        },
        {
          "key": "lava-edge-n",
          "x_index": 1,
          "y_index": 2,
          "width": 1,
          "height": 1
        },
        {
          "key": "lava-corner-ne",
          "x_index": 2,
          "y_index": 2,
          "width": 1,
          "height": 1
        },
        {
          "key": "lava-edge-w",
          "x_index": 0,
          "y_index": 3,
          "width": 1,
          "height": 1
        },
        {
          "key": "lava-empty",
          "x_index": 1,
          "y_index": 3,
          "width": 1,
          "height": 1
        },
        {
          "key": "lava-edge-e",
          "x_index": 2,
          "y_index": 3,
          "width": 1,
          "height": 1
        },
        {
          "key": "lava-corner-sw",
          "x_index": 0,
          "y_index": 4,
          "width": 1,
          "height": 1
        },
        {
          "key": "lava-edge-s",
          "x_index": 1,
          "y_index": 4,
          "width": 1,
          "height": 1
        },
        {
          "key": "lava-corner-se",
          "x_index": 2,
          "y_index": 4,
          "width": 1,
          "height": 1
        },
        {
          "key": "lava-3",
          "x_index": 0,
          "y_index": 5,
          "width": 1,
          "height": 1
        },
        {
          "key": "lava-2",
          "x_index": 1,
          "y_index": 5,
          "width": 1,
          "height": 1
        },
        {
          "key": "lava-1",
          "x_index": 2,
          "y_index": 5,
          "width": 1,
          "height": 1
        }
      ]
    },
    {
      "filename": "hole.png",
      "rows": 6,
      "cols": 3,
      "assets": [
        {
          "key": "hole-patch-large",
          "x_index": 0,
          "y_index": 0,
          "width": 1,
          "height": 1
        },
        {
          "key": "hole-corner-convex-nw",
          "x_index": 1,
          "y_index": 0,
          "width": 1,
          "height": 1
        },
        {
          "key": "hole-corner-convex-ne",
          "x_index": 2,
          "y_index": 0,
          "width": 1,
          "height": 1
        },
        {
          "key": "hole-corner-convex-sw",
          "x_index": 1,
          "y_index": 1,
          "width": 1,
          "height": 1
        },
        {
          "key": "hole-corner-convex-se",
          "x_index": 2,
          "y_index": 1,
          "width": 1,
          "height": 1
        },
        {
          "key": "hole-patch-small",
          "x_index": 0,
          "y_index": 1,
          "width": 1,
          "height": 1
        },
        {
          "key": "hole-corner-nw",
          "x_index": 0,
          "y_index": 2,
          "width": 1,
          "height": 1
        },
        {
          "key": "hole-edge-n",
          "x_index": 1,
          "y_index": 2,
          "width": 1,
          "height": 1
        },
        {
          "key": "hole-corner-ne",
          "x_index": 2,
          "y_index": 2,
          "width": 1,
          "height": 1
        },
        {
          "key": "hole-edge-w",
          "x_index": 0,
          "y_index": 3,
          "width": 1,
          "height": 1
        },
        {
          "key": "hole-empty",
          "x_index": 1,
          "y_index": 3,
          "width": 1,
          "height": 1
        },
        {
          "key": "hole-edge-e",
          "x_index": 2,
          "y_index": 3,
          "width": 1,
          "height": 1
        },
        {
          "key": "hole-corner-sw",
          "x_index": 0,
          "y_index": 4,
          "width": 1,
          "height": 1
        },
        {
          "key": "hole-edge-s",
          "x_index": 1,
          "y_index": 4,
          "width": 1,
          "height": 1
        },
        {
          "key": "hole-corner-se",
          "x_index": 2,
          "y_index": 4,
          "width": 1,
          "height": 1
        },
        {
          "key": "hole-3",
          "x_index": 0,
          "y_index": 5,
          "width": 1,
          "height": 1
        },
        {
          "key": "hole-2",
          "x_index": 1,
          "y_index": 5,
          "width": 1,
          "height": 1
        },
        {
          "key": "hole-1",
          "x_index": 2,
          "y_index": 5,
          "width": 1,
          "height": 1
        }
      ]
    },
    {
      "filename": "dirt.png",
      "rows": 6,
      "cols": 3,
      "assets": [
        {
          "key": "dirt-patch-large",
          "x_index": 0,
          "y_index": 0,
          "width": 1,
          "height": 1
        },
        {
          "key": "dirt-corner-convex-nw",
          "x_index": 1,
          "y_index": 0,
          "width": 1,
          "height": 1
        },
        {
          "key": "dirt-corner-convex-ne",
          "x_index": 2,
          "y_index": 0,
          "width": 1,
          "height": 1
        },
        {
          "key": "dirt-corner-convex-sw",
          "x_index": 1,
          "y_index": 1,
          "width": 1,
          "height": 1
        },
        {
          "key": "dirt-corner-convex-se",
          "x_index": 2,
          "y_index": 1,
          "width": 1,
          "height": 1
        },
        {
          "key": "dirt-patch-small",
          "x_index": 0,
          "y_index": 1,
          "width": 1,
          "height": 1
        },
        {
          "key": "dirt-corner-nw",
          "x_index": 0,
          "y_index": 2,
          "width": 1,
          "height": 1
        },
        {
          "key": "dirt-edge-n",
          "x_index": 1,
          "y_index": 2,
          "width": 1,
          "height": 1
        },
        {
          "key": "dirt-corner-ne",
          "x_index": 2,
          "y_index": 2,
          "width": 1,
          "height": 1
        },
        {
          "key": "dirt-edge-w",
          "x_index": 0,
          "y_index": 3,
          "width": 1,
          "height": 1
        },
        {
          "key": "dirt-empty",
          "x_index": 1,
          "y_index": 3,
          "width": 1,
          "height": 1
        },
        {
          "key": "dirt-edge-e",
          "x_index": 2,
          "y_index": 3,
          "width": 1,
          "height": 1
        },
        {
          "key": "dirt-corner-sw",
          "x_index": 0,
          "y_index": 4,
          "width": 1,
          "height": 1
        },
        {
          "key": "dirt-edge-s",
          "x_index": 1,
          "y_index": 4,
          "width": 1,
          "height": 1
        },
        {
          "key": "dirt-corner-se",
          "x_index": 2,
          "y_index": 4,
          "width": 1,
          "height": 1
        },
        {
          "key": "dirt-3",
          "x_index": 0,
          "y_index": 5,
          "width": 1,
          "height": 1
        },
        {
          "key": "dirt-2",
          "x_index": 1,
          "y_index": 5,
          "width": 1,
          "height": 1
        },
        {
          "key": "dirt-1",
          "x_index": 2,
          "y_index": 5,
          "width": 1,
          "height": 1
        }
      ]
    },
    {
      "filename": "grass.png",
      "rows": 6,
      "cols": 3,
      "assets": [
        {
          "key": "grass-patch-large",
          "x_index": 0,
          "y_index": 0,
          "width": 1,
          "height": 1
        },
        {
          "key": "grass-corner-convex-nw",
          "x_index": 1,
          "y_index": 0,
          "width": 1,
          "height": 1
        },
        {
          "key": "grass-corner-convex-ne",
          "x_index": 2,
          "y_index": 0,
          "width": 1,
          "height": 1
        },
        {
          "key": "grass-corner-convex-sw",
          "x_index": 1,
          "y_index": 1,
          "width": 1,
          "height": 1
        },
        {
          "key": "grass-corner-convex-se",
          "x_index": 2,
          "y_index": 1,
          "width": 1,
          "height": 1
        },
        {
          "key": "grass-patch-small",
          "x_index": 0,
          "y_index": 1,
          "width": 1,
          "height": 1
        },
        {
          "key": "grass-corner-nw",
          "x_index": 0,
          "y_index": 2,
          "width": 1,
          "height": 1
        },
        {
          "key": "grass-edge-n",
          "x_index": 1,
          "y_index": 2,
          "width": 1,
          "height": 1
        },
        {
          "key": "grass-corner-ne",
          "x_index": 2,
          "y_index": 2,
          "width": 1,
          "height": 1
        },
        {
          "key": "grass-edge-w",
          "x_index": 0,
          "y_index": 3,
          "width": 1,
          "height": 1
        },
        {
          "key": "grass-empty",
          "x_index": 1,
          "y_index": 3,
          "width": 1,
          "height": 1
        },
        {
          "key": "grass-edge-e",
          "x_index": 2,
          "y_index": 3,
          "width": 1,
          "height": 1
        },
        {
          "key": "grass-corner-sw",
          "x_index": 0,
          "y_index": 4,
          "width": 1,
          "height": 1
        },
        {
          "key": "grass-edge-s",
          "x_index": 1,
          "y_index": 4,
          "width": 1,
          "height": 1
        },
        {
          "key": "grass-corner-se",
          "x_index": 2,
          "y_index": 4,
          "width": 1,
          "height": 1
        },
        {
          "key": "grass-3",
          "x_index": 0,
          "y_index": 5,
          "width": 1,
          "height": 1
        },
        {
          "key": "grass-2",
          "x_index": 1,
          "y_index": 5,
          "width": 1,
          "height": 1
        },
        {
          "key": "grass-1",
          "x_index": 2,
          "y_index": 5,
          "width": 1,
          "height": 1
        }
      ]
    }
  ]
}