{
  "directional_animations": [
    {
      "key": "eyeball-base",
      "e": "eyeball-base-e",
      "s": "eyeball-base-s",
      "w": "eyeball-base-w",
      "n": "eyeball-base-n"
    },
    {
      "key": "eyeball-walk",
      "e": "eyeball-base-e",
      "s": "eyeball-base-s",
      "w": "eyeball-base-w",
      "n": "eyeball-base-n"
    }
  ],
  "animations": [
    {
      "key": "eyeball-base-e",
      "sprites": [
        "eyeball-base-e-1",
        "eyeball-base-e-2",
        "eyeball-base-e-3"
      ]
    },
    {
      "key": "eyeball-base-s",
      "sprites": [
        "eyeball-base-s-1",
        "eyeball-base-s-2",
        "eyeball-base-s-3"
      ]
    },
    {
      "key": "eyeball-base-w",
      "sprites": [
        "eyeball-base-w-1",
        "eyeball-base-w-2",
        "eyeball-base-w-3"
      ]
    },
    {
      "key": "eyeball-base-n",
      "sprites": [
        "eyeball-base-n-1",
        "eyeball-base-n-2",
        "eyeball-base-n-3"
      ]
    }
  ]
}