{
  "name": "eyeball",
  "actions": [
    {
      "atype": "base",
      "animation": "eyeball-base",
      "move_speed": 0.0,
      "length": null,
      "cooldown": null,
      "interruptable": true
    },
    {
      "atype": "walk",
      "animation": "eyeball-walk",
      "move_speed": 1.0,
      "length": null,
      "cooldown": null,
      "interruptable": true
    }
  ],
  "assets": {
    "animations_file": "animations.json",
    "sprites_file": "sprites.json"
  },
  "max_speed": 2.0,
  "rigid": true,
  "bounds": {
    "outer": {
      "center_relative": [
        0.0,
        0.0
      ],
      "half_size": [
        1.0,
        1.0
      ]
    },
    "inner": [
      {
       "center_relative": [
          0.0,
          0.0
        ],
        "half_size": [
          1.0,
          1.0
        ]
      }
    ]
  }
}
