{
  "movement_animations": [
    {
      "key": "male-default",
      "up": "male-default-up",
      "down": "male-default-down",
      "left": "male-default-left",
      "right": "male-default-right"
    },
    {
      "key": "male-walk",
      "up": "male-walk-up",
      "down": "male-walk-down",
      "left": "male-walk-left",
      "right": "male-walk-right"
    },
    {
      "key": "male-slash",
      "up": "male-slash-up",
      "down": "male-slash-down",
      "left": "male-slash-left",
      "right": "male-slash-right"
    },
    {
      "key": "eyeball",
      "up": "eyeball-up",
      "down": "eyeball-down",
      "left": "eyeball-left",
      "right": "eyeball-right"
    },
    {
      "key": "experimental-swing",
      "up": "experimental-right-swing",
      "down": "experimental-right-swing",
      "left": "experimental-right-swing",
      "right": "experimental-right-swing"
    }
  ],
  "animations": [
    {
      "key": "male-default-up",
      "sprites": [
        "male-walk-up-1"
      ]
    },
    {
      "key": "experimental-right-swing",
      "sprites": [
        "right-swing-1",
        "right-swing-2",
        "right-swing-3",
        "right-swing-4",
        "right-swing-5",
        "right-swing-6"
      ]
    },
    {
      "key": "test-box",
      "sprites": [
        "test-box-1",
        "test-box-2",
        "test-box-3",
        "test-box-4",
        "test-box-5"
      ]
    },
    {
      "key": "male-default-down",
      "sprites": [
        "male-walk-down-1"
      ]
    },
    {
      "key": "male-default-left",
      "sprites": [
        "male-walk-left-1"
      ]
    },
    {
      "key": "male-default-right",
      "sprites": [
        "male-walk-right-1"
      ]
    },
    {
      "key": "male-walk-up",
      "sprites": [
        "male-walk-up-1",
        "male-walk-up-2",
        "male-walk-up-3",
        "male-walk-up-4",
        "male-walk-up-5",
        "male-walk-up-6",
        "male-walk-up-7",
        "male-walk-up-8",
        "male-walk-up-9"
      ]
    },
    {
      "key": "male-walk-down",
      "sprites": [
        "male-walk-down-1",
        "male-walk-down-2",
        "male-walk-down-3",
        "male-walk-down-4",
        "male-walk-down-5",
        "male-walk-down-6",
        "male-walk-down-7",
        "male-walk-down-8",
        "male-walk-down-9"
      ]
    },
    {
      "key": "male-walk-left",
      "sprites": [
        "male-walk-left-1",
        "male-walk-left-2",
        "male-walk-left-3",
        "male-walk-left-4",
        "male-walk-left-5",
        "male-walk-left-6",
        "male-walk-left-7",
        "male-walk-left-8",
        "male-walk-left-9"
      ]
    },
    {
      "key": "male-walk-right",
      "sprites": [
        "male-walk-right-1",
        "male-walk-right-2",
        "male-walk-right-3",
        "male-walk-right-4",
        "male-walk-right-5",
        "male-walk-right-6",
        "male-walk-right-7",
        "male-walk-right-8",
        "male-walk-right-9"
      ]
    },
    {
      "key": "male-slash-up",
      "sprites": [
        "male-slash-up-1",
        "male-slash-up-2",
        "male-slash-up-3",
        "male-slash-up-4",
        "male-slash-up-5",
        "male-slash-up-6"
      ]
    },
    {
      "key": "male-slash-down",
      "sprites": [
        "male-slash-down-1",
        "male-slash-down-2",
        "male-slash-down-3",
        "male-slash-down-4",
        "male-slash-down-5",
        "male-slash-down-6"
      ]
    },
    {
      "key": "male-slash-left",
      "sprites": [
        "male-slash-left-1",
        "male-slash-left-2",
        "male-slash-left-3",
        "male-slash-left-4",
        "male-slash-left-5",
        "male-slash-left-6"
      ]
    },
    {
      "key": "male-slash-right",
      "sprites": [
        "male-slash-right-1",
        "male-slash-right-2",
        "male-slash-right-3",
        "male-slash-right-4",
        "male-slash-right-5",
        "male-slash-right-6"
      ]
    },
    {
      "key": "eyeball-up",
      "sprites": [
        "eyeball-up-1",
        "eyeball-up-2",
        "eyeball-up-3"
      ]
    },
    {
      "key": "eyeball-down",
      "sprites": [
        "eyeball-down-1",
        "eyeball-down-2",
        "eyeball-down-3"
      ]
    },
    {
      "key": "eyeball-left",
      "sprites": [
        "eyeball-left-1",
        "eyeball-left-2",
        "eyeball-left-3"
      ]
    },
    {
      "key": "eyeball-right",
      "sprites": [
        "eyeball-right-1",
        "eyeball-right-2",
        "eyeball-right-3"
      ]
    },
    {
      "key": "spell-orb-purple",
      "sprites": [
        "spell-orb-purple-1",
        "spell-orb-purple-2",
        "spell-orb-purple-3",
        "spell-orb-purple-4",
        "spell-orb-purple-3",
        "spell-orb-purple-2"
      ]
    }
  ]
}