{
  "directional_animations": [
    {
      "key": "minman-base",
      "e": "minman-base-e",
      "se": "minman-base-se",
      "s": "minman-base-s",
      "sw": "minman-base-sw",
      "w": "minman-base-w",
      "nw": "minman-base-nw",
      "n": "minman-base-n",
      "ne": "minman-base-ne"
    },
    {
      "key": "minman-roll",
      "e": "minman-roll-e",
      "se": "minman-roll-se",
      "s": "minman-roll-s",
      "sw": "minman-roll-sw",
      "w": "minman-roll-w",
      "nw": "minman-roll-nw",
      "n": "minman-roll-n",
      "ne": "minman-roll-ne"
    },
    {
      "key": "minman-walk",
      "e": "minman-walk-e",
      "se": "minman-walk-se",
      "s": "minman-walk-s",
      "sw": "minman-walk-sw",
      "w": "minman-walk-w",
      "nw": "minman-walk-nw",
      "n": "minman-walk-n",
      "ne": "minman-walk-ne"
    },
    {
      "key": "minman-attack",
      "e": "minman-attack-e",
      "se": "minman-attack-se",
      "s": "minman-attack-s",
      "sw": "minman-attack-sw",
      "w": "minman-attack-w",
      "nw": "minman-attack-nw",
      "n": "minman-attack-n",
      "ne": "minman-attack-ne"
    }
  ],
  "animations": [
    {
      "key": "minman-base-e",
      "sprites": [
        "minman-base-e-1",
        "minman-base-e-2",
        "minman-base-e-3",
        "minman-base-e-4",
        "minman-base-e-5"
      ]
    },
    {
      "key": "minman-base-se",
      "sprites": [
        "minman-base-se-1",
        "minman-base-se-2",
        "minman-base-se-3",
        "minman-base-se-4",
        "minman-base-se-5"
      ]
    },
    {
      "key": "minman-base-s",
      "sprites": [
        "minman-base-s-1",
        "minman-base-s-2",
        "minman-base-s-3",
        "minman-base-s-4",
        "minman-base-s-5"
      ]
    },
    {
      "key": "minman-base-sw",
      "sprites": [
        "minman-base-sw-1",
        "minman-base-sw-2",
        "minman-base-sw-3",
        "minman-base-sw-4",
        "minman-base-sw-5"
      ]
    },
    {
      "key": "minman-base-w",
      "sprites": [
        "minman-base-w-1",
        "minman-base-w-2",
        "minman-base-w-3",
        "minman-base-w-4",
        "minman-base-w-5"
      ]
    },
    {
      "key": "minman-base-nw",
      "sprites": [
        "minman-base-nw-1",
        "minman-base-nw-2",
        "minman-base-nw-3",
        "minman-base-nw-4",
        "minman-base-nw-5"
      ]
    },
    {
      "key": "minman-base-n",
      "sprites": [
        "minman-base-n-1",
        "minman-base-n-2",
        "minman-base-n-3",
        "minman-base-n-4",
        "minman-base-n-5"
      ]
    },
    {
      "key": "minman-base-ne",
      "sprites": [
        "minman-base-ne-1",
        "minman-base-ne-2",
        "minman-base-ne-3",
        "minman-base-ne-4",
        "minman-base-ne-5"
      ]
    },
    {
      "key": "minman-roll-e",
      "sprites": [
        "minman-roll-e-1",
        "minman-roll-e-2",
        "minman-roll-e-3",
        "minman-roll-e-4",
        "minman-roll-e-5"
      ]
    },
    {
      "key": "minman-roll-se",
      "sprites": [
        "minman-roll-se-1",
        "minman-roll-se-2",
        "minman-roll-se-3",
        "minman-roll-se-4",
        "minman-roll-se-5"
      ]
    },
    {
      "key": "minman-roll-s",
      "sprites": [
        "minman-roll-s-1",
        "minman-roll-s-2",
        "minman-roll-s-3",
        "minman-roll-s-4",
        "minman-roll-s-5"
      ]
    },
    {
      "key": "minman-roll-sw",
      "sprites": [
        "minman-roll-sw-1",
        "minman-roll-sw-2",
        "minman-roll-sw-3",
        "minman-roll-sw-4",
        "minman-roll-sw-5"
      ]
    },
    {
      "key": "minman-roll-w",
      "sprites": [
        "minman-roll-w-1",
        "minman-roll-w-2",
        "minman-roll-w-3",
        "minman-roll-w-4",
        "minman-roll-w-5"
      ]
    },
    {
      "key": "minman-roll-nw",
      "sprites": [
        "minman-roll-nw-1",
        "minman-roll-nw-2",
        "minman-roll-nw-3",
        "minman-roll-nw-4",
        "minman-roll-nw-5"
      ]
    },
    {
      "key": "minman-roll-n",
      "sprites": [
        "minman-roll-n-1",
        "minman-roll-n-2",
        "minman-roll-n-3",
        "minman-roll-n-4",
        "minman-roll-n-5"
      ]
    },
    {
      "key": "minman-roll-ne",
      "sprites": [
        "minman-roll-ne-1",
        "minman-roll-ne-2",
        "minman-roll-ne-3",
        "minman-roll-ne-4",
        "minman-roll-ne-5"
      ]
    },
    {
      "key": "minman-walk-e",
      "sprites": [
        "minman-walk-e-1",
        "minman-walk-e-2",
        "minman-walk-e-3",
        "minman-walk-e-4",
        "minman-walk-e-5"
      ]
    },
    {
      "key": "minman-walk-se",
      "sprites": [
        "minman-walk-se-1",
        "minman-walk-se-2",
        "minman-walk-se-3",
        "minman-walk-se-4",
        "minman-walk-se-5"
      ]
    },
    {
      "key": "minman-walk-s",
      "sprites": [
        "minman-walk-s-1",
        "minman-walk-s-2",
        "minman-walk-s-3",
        "minman-walk-s-4",
        "minman-walk-s-5"
      ]
    },
    {
      "key": "minman-walk-sw",
      "sprites": [
        "minman-walk-sw-1",
        "minman-walk-sw-2",
        "minman-walk-sw-3",
        "minman-walk-sw-4",
        "minman-walk-sw-5"
      ]
    },
    {
      "key": "minman-walk-w",
      "sprites": [
        "minman-walk-w-1",
        "minman-walk-w-2",
        "minman-walk-w-3",
        "minman-walk-w-4",
        "minman-walk-w-5"
      ]
    },
    {
      "key": "minman-walk-nw",
      "sprites": [
        "minman-walk-nw-1",
        "minman-walk-nw-2",
        "minman-walk-nw-3",
        "minman-walk-nw-4",
        "minman-walk-nw-5"
      ]
    },
    {
      "key": "minman-walk-n",
      "sprites": [
        "minman-walk-n-1",
        "minman-walk-n-2",
        "minman-walk-n-3",
        "minman-walk-n-4",
        "minman-walk-n-5"
      ]
    },
    {
      "key": "minman-walk-ne",
      "sprites": [
        "minman-walk-ne-1",
        "minman-walk-ne-2",
        "minman-walk-ne-3",
        "minman-walk-ne-4",
        "minman-walk-ne-5"
      ]
    },
    {
      "key": "minman-attack-e",
      "sprites": [
        "minman-attack-e-1",
        "minman-attack-e-2",
        "minman-attack-e-3",
        "minman-attack-e-4",
        "minman-attack-e-5"
      ]
    },
    {
      "key": "minman-attack-se",
      "sprites": [
        "minman-attack-se-1",
        "minman-attack-se-2",
        "minman-attack-se-3",
        "minman-attack-se-4",
        "minman-attack-se-5"
      ]
    },
    {
      "key": "minman-attack-s",
      "sprites": [
        "minman-attack-s-1",
        "minman-attack-s-2",
        "minman-attack-s-3",
        "minman-attack-s-4",
        "minman-attack-s-5"
      ]
    },
    {
      "key": "minman-attack-sw",
      "sprites": [
        "minman-attack-sw-1",
        "minman-attack-sw-2",
        "minman-attack-sw-3",
        "minman-attack-sw-4",
        "minman-attack-sw-5"
      ]
    },
    {
      "key": "minman-attack-w",
      "sprites": [
        "minman-attack-w-1",
        "minman-attack-w-2",
        "minman-attack-w-3",
        "minman-attack-w-4",
        "minman-attack-w-5"
      ]
    },
    {
      "key": "minman-attack-nw",
      "sprites": [
        "minman-attack-nw-1",
        "minman-attack-nw-2",
        "minman-attack-nw-3",
        "minman-attack-nw-4",
        "minman-attack-nw-5"
      ]
    },
    {
      "key": "minman-attack-n",
      "sprites": [
        "minman-attack-n-1",
        "minman-attack-n-2",
        "minman-attack-n-3",
        "minman-attack-n-4",
        "minman-attack-n-5"
      ]
    },
    {
      "key": "minman-attack-ne",
      "sprites": [
        "minman-attack-ne-1",
        "minman-attack-ne-2",
        "minman-attack-ne-3",
        "minman-attack-ne-4",
        "minman-attack-ne-5"
      ]
    }
  ]
}