{
  "spritesheets": [
    {
      "filename": "empty.png",
      "rows": 1,
      "cols": 1,
      "assets": [
        {
          "key": "empty-sprite",
          "x_index": 0,
          "y_index": 0,
          "width": 1,
          "height": 1
        }
      ]
    },
    {
      "filename": "experimental/right-swing.png",
      "rows": 1,
      "cols": 6,
      "assets": [
        {
          "key": "right-swing-1",
          "x_index": 0,
          "y_index": 0,
          "width": 1,
          "height": 1
        },
        {
          "key": "right-swing-2",
          "x_index": 1,
          "y_index": 0,
          "width": 1,
          "height": 1
        },
        {
          "key": "right-swing-3",
          "x_index": 2,
          "y_index": 0,
          "width": 1,
          "height": 1
        },
        {
          "key": "right-swing-4",
          "x_index": 3,
          "y_index": 0,
          "width": 1,
          "height": 1
        },
        {
          "key": "right-swing-5",
          "x_index": 4,
          "y_index": 0,
          "width": 1,
          "height": 1
        },
        {
          "key": "right-swing-6",
          "x_index": 5,
          "y_index": 0,
          "width": 1,
          "height": 1
        }
      ]
    },
    {
      "filename": "test_box.png",
      "rows": 1,
      "cols": 8,
      "assets": [
        {
          "key": "test-box-1",
          "x_index": 0,
          "y_index": 0,
          "width": 1,
          "height": 1
        },
        {
          "key": "test-box-2",
          "x_index": 1,
          "y_index": 0,
          "width": 1,
          "height": 1
        },
        {
          "key": "test-box-3",
          "x_index": 2,
          "y_index": 0,
          "width": 1,
          "height": 1
        },
        {
          "key": "test-box-4",
          "x_index": 3,
          "y_index": 0,
          "width": 1,
          "height": 1
        },
        {
          "key": "test-box-5",
          "x_index": 4,
          "y_index": 0,
          "width": 1,
          "height": 1
        }
      ]
    },
    {
      "filename": "male_slash.png",
      "rows": 4,
      "cols": 6,
      "assets": [
        {
          "key": "male-slash-up-1",
          "x_index": 0,
          "y_index": 0,
          "width": 1,
          "height": 1
        },
        {
          "key": "male-slash-up-2",
          "x_index": 1,
          "y_index": 0,
          "width": 1,
          "height": 1
        },
        {
          "key": "male-slash-up-3",
          "x_index": 2,
          "y_index": 0,
          "width": 1,
          "height": 1
        },
        {
          "key": "male-slash-up-4",
          "x_index": 3,
          "y_index": 0,
          "width": 1,
          "height": 1
        },
        {
          "key": "male-slash-up-5",
          "x_index": 4,
          "y_index": 0,
          "width": 1,
          "height": 1
        },
        {
          "key": "male-slash-up-6",
          "x_index": 5,
          "y_index": 0,
          "width": 1,
          "height": 1
        },
        {
          "key": "male-slash-left-1",
          "x_index": 0,
          "y_index": 1,
          "width": 1,
          "height": 1
        },
        {
          "key": "male-slash-left-2",
          "x_index": 1,
          "y_index": 1,
          "width": 1,
          "height": 1
        },
        {
          "key": "male-slash-left-3",
          "x_index": 2,
          "y_index": 1,
          "width": 1,
          "height": 1
        },
        {
          "key": "male-slash-left-4",
          "x_index": 3,
          "y_index": 1,
          "width": 1,
          "height": 1
        },
        {
          "key": "male-slash-left-5",
          "x_index": 4,
          "y_index": 1,
          "width": 1,
          "height": 1
        },
        {
          "key": "male-slash-left-6",
          "x_index": 5,
          "y_index": 1,
          "width": 1,
          "height": 1
        },
        {
          "key": "male-slash-down-1",
          "x_index": 0,
          "y_index": 2,
          "width": 1,
          "height": 1
        },
        {
          "key": "male-slash-down-2",
          "x_index": 1,
          "y_index": 2,
          "width": 1,
          "height": 1
        },
        {
          "key": "male-slash-down-3",
          "x_index": 2,
          "y_index": 2,
          "width": 1,
          "height": 1
        },
        {
          "key": "male-slash-down-4",
          "x_index": 3,
          "y_index": 2,
          "width": 1,
          "height": 1
        },
        {
          "key": "male-slash-down-5",
          "x_index": 4,
          "y_index": 2,
          "width": 1,
          "height": 1
        },
        {
          "key": "male-slash-down-6",
          "x_index": 5,
          "y_index": 2,
          "width": 1,
          "height": 1
        },
        {
          "key": "male-slash-right-1",
          "x_index": 0,
          "y_index": 3,
          "width": 1,
          "height": 1
        },
        {
          "key": "male-slash-right-2",
          "x_index": 1,
          "y_index": 3,
          "width": 1,
          "height": 1
        },
        {
          "key": "male-slash-right-3",
          "x_index": 2,
          "y_index": 3,
          "width": 1,
          "height": 1
        },
        {
          "key": "male-slash-right-4",
          "x_index": 3,
          "y_index": 3,
          "width": 1,
          "height": 1
        },
        {
          "key": "male-slash-right-5",
          "x_index": 4,
          "y_index": 3,
          "width": 1,
          "height": 1
        },
        {
          "key": "male-slash-right-6",
          "x_index": 5,
          "y_index": 3,
          "width": 1,
          "height": 1
        }
      ]
    },
    {
      "filename": "male_walkcycle.png",
      "rows": 4,
      "cols": 9,
      "assets": [
        {
          "key": "male-walk-up-1",
          "x_index": 0,
          "y_index": 0,
          "width": 1,
          "height": 1
        },
        {
          "key": "male-walk-up-2",
          "x_index": 1,
          "y_index": 0,
          "width": 1,
          "height": 1
        },
        {
          "key": "male-walk-up-3",
          "x_index": 2,
          "y_index": 0,
          "width": 1,
          "height": 1
        },
        {
          "key": "male-walk-up-4",
          "x_index": 3,
          "y_index": 0,
          "width": 1,
          "height": 1
        },
        {
          "key": "male-walk-up-5",
          "x_index": 4,
          "y_index": 0,
          "width": 1,
          "height": 1
        },
        {
          "key": "male-walk-up-6",
          "x_index": 5,
          "y_index": 0,
          "width": 1,
          "height": 1
        },
        {
          "key": "male-walk-up-7",
          "x_index": 6,
          "y_index": 0,
          "width": 1,
          "height": 1
        },
        {
          "key": "male-walk-up-8",
          "x_index": 7,
          "y_index": 0,
          "width": 1,
          "height": 1
        },
        {
          "key": "male-walk-up-9",
          "x_index": 8,
          "y_index": 0,
          "width": 1,
          "height": 1
        },
        {
          "key": "male-walk-left-1",
          "x_index": 0,
          "y_index": 1,
          "width": 1,
          "height": 1
        },
        {
          "key": "male-walk-left-2",
          "x_index": 1,
          "y_index": 1,
          "width": 1,
          "height": 1
        },
        {
          "key": "male-walk-left-3",
          "x_index": 2,
          "y_index": 1,
          "width": 1,
          "height": 1
        },
        {
          "key": "male-walk-left-4",
          "x_index": 3,
          "y_index": 1,
          "width": 1,
          "height": 1
        },
        {
          "key": "male-walk-left-5",
          "x_index": 4,
          "y_index": 1,
          "width": 1,
          "height": 1
        },
        {
          "key": "male-walk-left-6",
          "x_index": 5,
          "y_index": 1,
          "width": 1,
          "height": 1
        },
        {
          "key": "male-walk-left-7",
          "x_index": 6,
          "y_index": 1,
          "width": 1,
          "height": 1
        },
        {
          "key": "male-walk-left-8",
          "x_index": 7,
          "y_index": 1,
          "width": 1,
          "height": 1
        },
        {
          "key": "male-walk-left-9",
          "x_index": 8,
          "y_index": 1,
          "width": 1,
          "height": 1
        },
        {
          "key": "male-walk-down-1",
          "x_index": 0,
          "y_index": 2,
          "width": 1,
          "height": 1
        },
        {
          "key": "male-walk-down-2",
          "x_index": 1,
          "y_index": 2,
          "width": 1,
          "height": 1
        },
        {
          "key": "male-walk-down-3",
          "x_index": 2,
          "y_index": 2,
          "width": 1,
          "height": 1
        },
        {
          "key": "male-walk-down-4",
          "x_index": 3,
          "y_index": 2,
          "width": 1,
          "height": 1
        },
        {
          "key": "male-walk-down-5",
          "x_index": 4,
          "y_index": 2,
          "width": 1,
          "height": 1
        },
        {
          "key": "male-walk-down-6",
          "x_index": 5,
          "y_index": 2,
          "width": 1,
          "height": 1
        },
        {
          "key": "male-walk-down-7",
          "x_index": 6,
          "y_index": 2,
          "width": 1,
          "height": 1
        },
        {
          "key": "male-walk-down-8",
          "x_index": 7,
          "y_index": 2,
          "width": 1,
          "height": 1
        },
        {
          "key": "male-walk-down-9",
          "x_index": 8,
          "y_index": 2,
          "width": 1,
          "height": 1
        },
        {
          "key": "male-walk-right-1",
          "x_index": 0,
          "y_index": 3,
          "width": 1,
          "height": 1
        },
        {
          "key": "male-walk-right-2",
          "x_index": 1,
          "y_index": 3,
          "width": 1,
          "height": 1
        },
        {
          "key": "male-walk-right-3",
          "x_index": 2,
          "y_index": 3,
          "width": 1,
          "height": 1
        },
        {
          "key": "male-walk-right-4",
          "x_index": 3,
          "y_index": 3,
          "width": 1,
          "height": 1
        },
        {
          "key": "male-walk-right-5",
          "x_index": 4,
          "y_index": 3,
          "width": 1,
          "height": 1
        },
        {
          "key": "male-walk-right-6",
          "x_index": 5,
          "y_index": 3,
          "width": 1,
          "height": 1
        },
        {
          "key": "male-walk-right-7",
          "x_index": 6,
          "y_index": 3,
          "width": 1,
          "height": 1
        },
        {
          "key": "male-walk-right-8",
          "x_index": 7,
          "y_index": 3,
          "width": 1,
          "height": 1
        },
        {
          "key": "male-walk-right-9",
          "x_index": 8,
          "y_index": 3,
          "width": 1,
          "height": 1
        }
      ]
    },
    {
      "rows": 4,
      "cols": 3,
      "filename": "eyeball.png",
      "assets": [
        {
          "key": "eyeball-up-1",
          "x_index": 0,
          "y_index": 0,
          "width": 1,
          "height": 1
        },
        {
          "key": "eyeball-up-2",
          "x_index": 1,
          "y_index": 0,
          "width": 1,
          "height": 1
        },
        {
          "key": "eyeball-up-3",
          "x_index": 2,
          "y_index": 0,
          "width": 1,
          "height": 1
        },
        {
          "key": "eyeball-left-1",
          "x_index": 0,
          "y_index": 1,
          "width": 1,
          "height": 1
        },
        {
          "key": "eyeball-left-2",
          "x_index": 1,
          "y_index": 1,
          "width": 1,
          "height": 1
        },
        {
          "key": "eyeball-left-3",
          "x_index": 2,
          "y_index": 1,
          "width": 1,
          "height": 1
        },
        {
          "key": "eyeball-down-1",
          "x_index": 0,
          "y_index": 2,
          "width": 1,
          "height": 1
        },
        {
          "key": "eyeball-down-2",
          "x_index": 1,
          "y_index": 2,
          "width": 1,
          "height": 1
        },
        {
          "key": "eyeball-down-3",
          "x_index": 2,
          "y_index": 2,
          "width": 1,
          "height": 1
        },
        {
          "key": "eyeball-right-1",
          "x_index": 0,
          "y_index": 3,
          "width": 1,
          "height": 1
        },
        {
          "key": "eyeball-right-2",
          "x_index": 1,
          "y_index": 3,
          "width": 1,
          "height": 1
        },
        {
          "key": "eyeball-right-3",
          "x_index": 2,
          "y_index": 3,
          "width": 1,
          "height": 1
        }
      ]
    },
    {
      "filename": "spell-orb-purple/spell-1.png",
      "rows": 1,
      "cols": 1,
      "assets": [
        {
          "key": "spell-orb-purple-1",
          "x_index": 0,
          "y_index": 0,
          "width": 1,
          "height": 1
        }
      ]
    },
    {
      "filename": "spell-orb-purple/spell-2.png",
      "rows": 1,
      "cols": 1,
      "assets": [
        {
          "key": "spell-orb-purple-2",
          "x_index": 0,
          "y_index": 0,
          "width": 1,
          "height": 1
        }
      ]
    },
    {
      "filename": "spell-orb-purple/spell-3.png",
      "rows": 1,
      "cols": 1,
      "assets": [
        {
          "key": "spell-orb-purple-3",
          "x_index": 0,
          "y_index": 0,
          "width": 1,
          "height": 1
        }
      ]
    },
    {
      "filename": "spell-orb-purple/spell-4.png",
      "rows": 1,
      "cols": 1,
      "assets": [
        {
          "key": "spell-orb-purple-4",
          "x_index": 0,
          "y_index": 0,
          "width": 1,
          "height": 1
        }
      ]
    }
  ]
}